{
	"$id" : "https://gitlab.com/php-extended/php-api-fr-gouv-datatourisme-diffuseur-interface/json-schema.json",
	"$schema" : "https://json-schema.org/draft/2020-12/schema",
	"type" : "null",
	"$defs" : {
		"ApiFrDatatourismeDiffuseurAddress" : {
			"type" : "object",
			"description" : "This class represents an address.",
			"properties" : {
				"id" : {
					"type" : "string",
					"description" : "The id of the object.",
					"format" : "uri"
				},
				"type" : {
					"type" : "array",
					"description" : "The type of object.",
					"items" : {
						"type" : "string"
					}
				},
				"schemaAddressLocality" : {
					"type" : "string",
					"description" : "The locality."
				},
				"schemaPostOfficeBoxNumber" : {
					"type" : "string",
					"description" : "The post office box number."
				},
				"schemaPostalCode" : {
					"type" : "string",
					"description" : "The postal code."
				},
				"schemaStreetAddress" : {
					"type" : "array",
					"description" : "The street address.",
					"items" : {
						"type" : "string"
					}
				},
				"cedex" : {
					"type" : "string",
					"description" : "The cedex."
				},
				"hasAddressCity" : {
					"$ref" : "#/$defs/ApiFrDatatourismeDiffuseurCity",
					"description" : "The city."
				}
			},
			"required" : ["id", "type"]
		},
		"ApiFrDatatourismeDiffuseurAgent" : {
			"type" : "object",
			"description" : "This class represents an agent.",
			"properties" : {
				"id" : {
					"type" : "string",
					"description" : "The id of the object.",
					"format" : "uri"
				},
				"type" : {
					"type" : "array",
					"description" : "The type of object.",
					"items" : {
						"type" : "string"
					}
				},
				"dcIdentifier" : {
					"type" : "string",
					"description" : "The dc:identifier of the object."
				},
				"rdfsComment" : {
					"$ref" : "#/$defs/ApiFrDatatourismeDiffuseurTranslatedText",
					"description" : "The comments."
				},
				"schemaAddress" : {
					"type" : "array",
					"description" : "The address of the agent.",
					"items" : {
						"$ref" : "#/$defs/ApiFrDatatourismeDiffuseurAddress"
					}
				},
				"schemaEmail" : {
					"type" : "array",
					"description" : "Email addresses of the agent.",
					"items" : {
						"type" : "string",
						"format" : "email"
					}
				},
				"schemaFamilyName" : {
					"type" : "array",
					"description" : "The family name of this agent.",
					"items" : {
						"type" : "string"
					}
				},
				"schemaFaxNumber" : {
					"type" : "array",
					"description" : "The fax number of this agent.",
					"items" : {
						"type" : "string"
					}
				},
				"schemaGender" : {
					"$ref" : "#/$defs/ApiFrDatatourismeDiffuseurGender",
					"description" : "The gender of this agent."
				},
				"schemaGivenName" : {
					"type" : "array",
					"description" : "The given name of this agent.",
					"items" : {
						"type" : "string"
					}
				},
				"schemaLegalName" : {
					"type" : "string",
					"description" : "The legal name of the agent."
				},
				"schemaTelephone" : {
					"type" : "array",
					"description" : "Telephone numbers of the agent.",
					"items" : {
						"type" : "string"
					}
				},
				"schemaLogo" : {
					"type" : "string",
					"description" : "The logo of the agent.",
					"format" : "uri"
				},
				"foafHomepage" : {
					"type" : "array",
					"description" : "The homepage of the agent.",
					"items" : {
						"type" : "string",
						"format" : "uri"
					}
				},
				"foafTitle" : {
					"type" : "array",
					"description" : "The title of the agent.",
					"items" : {
						"type" : "string"
					}
				},
				"hasTranslatedProperty" : {
					"type" : "array",
					"description" : "The list of all elements that were translated for this object.",
					"items" : {
						"$ref" : "#/$defs/ApiFrDatatourismeDiffuseurTranslatedProperty"
					}
				},
				"agreementLicense" : {
					"type" : "string",
					"description" : "French official agreement license number."
				},
				"apeNaf" : {
					"type" : "string",
					"description" : "A code given by French institue INSEE to identify the main activity of an Organisation."
				},
				"registeredNumber" : {
					"type" : "string",
					"description" : "French official ID to identify vacation rentals."
				},
				"siret" : {
					"type" : "string",
					"description" : "The siret number of the agent, if any."
				}
			},
			"required" : ["id", "type"]
		},
		"ApiFrDatatourismeDiffuseurAnnotation" : {
			"type" : "object",
			"description" : "This class represents an annotation on a media.",
			"properties" : {
				"id" : {
					"type" : "string",
					"description" : "The id of the object.",
					"format" : "uri"
				},
				"type" : {
					"type" : "array",
					"description" : "The type of object.",
					"items" : {
						"type" : "string"
					}
				},
				"ebucoreAbstract" : {
					"$ref" : "#/$defs/ApiFrDatatourismeDiffuseurTranslatedText",
					"description" : "The abstract."
				},
				"ebucoreComments" : {
					"$ref" : "#/$defs/ApiFrDatatourismeDiffuseurTranslatedText",
					"description" : "The comments."
				},
				"ebucoreIsCoveredBy" : {
					"type" : "string",
					"description" : "The licence."
				},
				"ebucoreTitle" : {
					"$ref" : "#/$defs/ApiFrDatatourismeDiffuseurTranslatedText",
					"description" : "The title."
				},
				"credits" : {
					"type" : "array",
					"description" : "The credits.",
					"items" : {
						"type" : "string"
					}
				},
				"hasTranslatedProperty" : {
					"type" : "array",
					"description" : "The list of all elements that were translated for this object.",
					"items" : {
						"$ref" : "#/$defs/ApiFrDatatourismeDiffuseurTranslatedProperty"
					}
				},
				"rightsEndDate" : {
					"type" : "string",
					"description" : "The date the rights ends to be applied on the media.",
					"format" : "date"
				},
				"rightsStartDate" : {
					"type" : "string",
					"description" : "The date the rights starts to be applied on the media.",
					"format" : "date"
				}
			},
			"required" : ["id", "type"]
		},
		"ApiFrDatatourismeDiffuseurAudience" : {
			"type" : "object",
			"description" : "This class represents a specific audience.",
			"properties" : {
				"id" : {
					"type" : "string",
					"description" : "The id of the object."
				},
				"type" : {
					"type" : "array",
					"description" : "The type of object.",
					"items" : {
						"type" : "string"
					}
				},
				"rdfsLabel" : {
					"$ref" : "#/$defs/ApiFrDatatourismeDiffuseurTranslatedText",
					"description" : "The label of the audience."
				}
			},
			"required" : ["id", "type"]
		},
		"ApiFrDatatourismeDiffuseurCity" : {
			"type" : "object",
			"description" : "This class represents a city.",
			"properties" : {
				"id" : {
					"type" : "string",
					"description" : "The id of the object."
				},
				"type" : {
					"type" : "array",
					"description" : "The type of object.",
					"items" : {
						"type" : "string"
					}
				},
				"rdfsLabel" : {
					"$ref" : "#/$defs/ApiFrDatatourismeDiffuseurTranslatedText",
					"description" : "The label of the city."
				},
				"insee" : {
					"type" : "string",
					"description" : "The insee code of the city."
				},
				"isPartOfDepartment" : {
					"$ref" : "#/$defs/ApiFrDatatourismeDiffuseurDepartment",
					"description" : "The department of the city."
				}
			},
			"required" : ["id", "type"]
		},
		"ApiFrDatatourismeDiffuseurCountry" : {
			"type" : "object",
			"description" : "This class represents a country.",
			"properties" : {
				"id" : {
					"type" : "string",
					"description" : "The id of the object."
				},
				"type" : {
					"type" : "array",
					"description" : "The type of object.",
					"items" : {
						"type" : "string"
					}
				},
				"rdfsLabel" : {
					"$ref" : "#/$defs/ApiFrDatatourismeDiffuseurTranslatedText",
					"description" : "The label of the country."
				}
			},
			"required" : ["id", "type"]
		},
		"ApiFrDatatourismeDiffuseurDayOfWeek" : {
			"type" : "object",
			"description" : "This class represents the day of week.",
			"properties" : {
				"id" : {
					"type" : "string",
					"description" : "The id of the object."
				},
				"type" : {
					"type" : "array",
					"description" : "The type of object.",
					"items" : {
						"type" : "string"
					}
				},
				"rdfsLabel" : {
					"$ref" : "#/$defs/ApiFrDatatourismeDiffuseurTranslatedText",
					"description" : "The label of the day of week."
				}
			},
			"required" : ["id", "type"]
		},
		"ApiFrDatatourismeDiffuseurDepartment" : {
			"type" : "object",
			"description" : "This class represent a department.",
			"properties" : {
				"id" : {
					"type" : "string",
					"description" : "The id of the object."
				},
				"type" : {
					"type" : "array",
					"description" : "The type of object.",
					"items" : {
						"type" : "string"
					}
				},
				"rdfsLabel" : {
					"$ref" : "#/$defs/ApiFrDatatourismeDiffuseurTranslatedText",
					"description" : "The label of the day of week."
				},
				"insee" : {
					"type" : "string",
					"description" : "The insee code of the department."
				},
				"isPartOfRegion" : {
					"$ref" : "#/$defs/ApiFrDatatourismeDiffuseurRegion",
					"description" : "The region of the department."
				}
			},
			"required" : ["id", "type"]
		},
		"ApiFrDatatourismeDiffuseurDescription" : {
			"type" : "object",
			"description" : "This class represents the description of an point of interest.",
			"properties" : {
				"id" : {
					"type" : "string",
					"description" : "The id of the object.",
					"format" : "uri"
				},
				"type" : {
					"type" : "array",
					"description" : "The type of object.",
					"items" : {
						"type" : "string"
					}
				},
				"dcDescription" : {
					"$ref" : "#/$defs/ApiFrDatatourismeDiffuseurTranslatedText",
					"description" : "The description."
				},
				"hasTranslatedProperty" : {
					"type" : "array",
					"description" : "The translated properties.",
					"items" : {
						"$ref" : "#/$defs/ApiFrDatatourismeDiffuseurTranslatedProperty"
					}
				},
				"isDedicatedTo" : {
					"type" : "array",
					"description" : "The audience the item is dedicated to.",
					"items" : {
						"$ref" : "#/$defs/ApiFrDatatourismeDiffuseurAudience"
					}
				},
				"shortDescription" : {
					"$ref" : "#/$defs/ApiFrDatatourismeDiffuseurTranslatedText",
					"description" : "The short description of the point of interest."
				}
			},
			"required" : ["id", "type"]
		},
		"ApiFrDatatourismeDiffuseurFeature" : {
			"type" : "object",
			"description" : "This class represents a feature.",
			"properties" : {
				"id" : {
					"type" : "string",
					"description" : "The id of the object."
				},
				"type" : {
					"type" : "array",
					"description" : "The type of object.",
					"items" : {
						"type" : "string"
					}
				},
				"rdfsLabel" : {
					"$ref" : "#/$defs/ApiFrDatatourismeDiffuseurTranslatedText",
					"description" : "The label of the city."
				}
			},
			"required" : ["id", "type"]
		},
		"ApiFrDatatourismeDiffuseurFeatureSpecification" : {
			"type" : "object",
			"description" : "This class represents a feature specification.",
			"properties" : {
				"id" : {
					"type" : "string",
					"description" : "The id of the object.",
					"format" : "uri"
				},
				"type" : {
					"type" : "array",
					"description" : "The type of object.",
					"items" : {
						"type" : "string"
					}
				},
				"schemaValue" : {
					"type" : "string",
					"description" : "The value of this feature specification."
				},
				"airConditioning" : {
					"type" : "boolean",
					"description" : "Whether air conditioning is present."
				},
				"charged" : {
					"type" : "boolean",
					"description" : "Whether the associated facility is charged."
				},
				"features" : {
					"type" : "array",
					"description" : "The features of this specification.",
					"items" : {
						"$ref" : "#/$defs/ApiFrDatatourismeDiffuseurFeature"
					}
				},
				"hasFloorSize" : {
					"$ref" : "#/$defs/ApiFrDatatourismeDiffuseurQuantitativeValue",
					"description" : "The floor size."
				},
				"hasLayout" : {
					"type" : "array",
					"description" : "The layout of the room associated to this specification.",
					"items" : {
						"$ref" : "#/$defs/ApiFrDatatourismeDiffuseurLayout"
					}
				},
				"internetAccess" : {
					"type" : "boolean",
					"description" : "Whether internet is accessible."
				},
				"occupancy" : {
					"type" : "integer",
					"description" : "The max number of people in the area."
				},
				"petsAllowed" : {
					"type" : "boolean",
					"description" : "Whether pets are allowed."
				},
				"seatCount" : {
					"type" : "integer",
					"description" : "The count of available seats."
				}
			},
			"required" : ["id", "type"]
		},
		"ApiFrDatatourismeDiffuseurGender" : {
			"type" : "object",
			"description" : "This class represents a gender.",
			"properties" : {
				"id" : {
					"type" : "string",
					"description" : "The id of the object."
				},
				"type" : {
					"type" : "array",
					"description" : "The type of object.",
					"items" : {
						"type" : "string"
					}
				},
				"rdfsComment" : {
					"$ref" : "#/$defs/ApiFrDatatourismeDiffuseurTranslatedText",
					"description" : "The comment."
				},
				"rdfsLabel" : {
					"type" : "array",
					"description" : "The label.",
					"items" : {
						"type" : "string"
					}
				}
			},
			"required" : ["id", "type"]
		},
		"ApiFrDatatourismeDiffuseurGeo" : {
			"type" : "object",
			"description" : "This class represents geolocation metadata about a location.",
			"properties" : {
				"id" : {
					"type" : "string",
					"description" : "The id of the object.",
					"format" : "uri"
				},
				"type" : {
					"type" : "array",
					"description" : "The type of object.",
					"items" : {
						"type" : "string"
					}
				},
				"schemaElevation" : {
					"type" : "number",
					"description" : "The elevation."
				},
				"schemaLatitude" : {
					"type" : "number",
					"description" : "The latitude."
				},
				"schemaLine" : {
					"type" : "string",
					"description" : "Gets the url of the line xml file.",
					"format" : "uri"
				},
				"schemaLongitude" : {
					"type" : "number",
					"description" : "The longitude."
				}
			},
			"required" : ["id", "type"]
		},
		"ApiFrDatatourismeDiffuseurGeographicReach" : {
			"type" : "object",
			"description" : "This class represents geolocation metadata about a location.",
			"properties" : {
				"id" : {
					"type" : "string",
					"description" : "The id of the object."
				},
				"type" : {
					"type" : "array",
					"description" : "The type of object.",
					"items" : {
						"type" : "string"
					}
				},
				"rdfsLabel" : {
					"$ref" : "#/$defs/ApiFrDatatourismeDiffuseurTranslatedText",
					"description" : "The label."
				}
			},
			"required" : ["id", "type"]
		},
		"ApiFrDatatourismeDiffuseurLayout" : {
			"type" : "object",
			"description" : "This class represents a specific audience.",
			"properties" : {
				"id" : {
					"type" : "string",
					"description" : "The id of the object."
				},
				"type" : {
					"type" : "array",
					"description" : "The type of object.",
					"items" : {
						"type" : "string"
					}
				},
				"rdfsLabel" : {
					"$ref" : "#/$defs/ApiFrDatatourismeDiffuseurTranslatedText",
					"description" : "The label."
				}
			},
			"required" : ["id", "type"]
		},
		"ApiFrDatatourismeDiffuseurLocation" : {
			"type" : "object",
			"description" : "This class represents a location for an point of interest.",
			"properties" : {
				"id" : {
					"type" : "string",
					"description" : "The id of the object.",
					"format" : "uri"
				},
				"type" : {
					"type" : "array",
					"description" : "The type of object.",
					"items" : {
						"type" : "string"
					}
				},
				"schemaAddress" : {
					"type" : "array",
					"description" : "The addresses.",
					"items" : {
						"$ref" : "#/$defs/ApiFrDatatourismeDiffuseurAddress"
					}
				},
				"schemaGeo" : {
					"$ref" : "#/$defs/ApiFrDatatourismeDiffuseurGeo",
					"description" : "The geolocalisation."
				},
				"schemaOpeningHoursSpecification" : {
					"type" : "array",
					"description" : "The opening hours.",
					"items" : {
						"$ref" : "#/$defs/ApiFrDatatourismeDiffuseurOpeningHours"
					}
				},
				"altInsee" : {
					"type" : "array",
					"description" : "The resort name when it is different of the official city name.",
					"items" : {
						"type" : "string"
					}
				},
				"airConditioning" : {
					"type" : "boolean",
					"description" : "Whether air conditioning is provided."
				},
				"internetAccess" : {
					"type" : "boolean",
					"description" : "Whether internet is provided."
				},
				"noSmoking" : {
					"type" : "boolean",
					"description" : "Whether smoking is forbidden."
				},
				"petsAllowed" : {
					"type" : "boolean",
					"description" : "Whether pets are allowed."
				}
			},
			"required" : ["id", "type"]
		},
		"ApiFrDatatourismeDiffuseurMedia" : {
			"type" : "object",
			"description" : "This class represents an resource for a media.",
			"properties" : {
				"id" : {
					"type" : "string",
					"description" : "The id of the object.",
					"format" : "uri"
				},
				"type" : {
					"type" : "array",
					"description" : "The type of object.",
					"items" : {
						"type" : "string"
					}
				},
				"ebucoreHasAnnotation" : {
					"type" : "array",
					"description" : "The annotations.",
					"items" : {
						"$ref" : "#/$defs/ApiFrDatatourismeDiffuseurAnnotation"
					}
				},
				"ebucoreHasRelatedResource" : {
					"type" : "array",
					"description" : "The resources.",
					"items" : {
						"$ref" : "#/$defs/ApiFrDatatourismeDiffuseurResource"
					}
				}
			},
			"required" : ["id", "type"]
		},
		"ApiFrDatatourismeDiffuseurMimeType" : {
			"type" : "object",
			"description" : "This class represents a mime type.",
			"properties" : {
				"id" : {
					"type" : "string",
					"description" : "The id of the object."
				},
				"type" : {
					"type" : "array",
					"description" : "The type of object.",
					"items" : {
						"type" : "string"
					}
				},
				"rdfsLabel" : {
					"type" : "array",
					"description" : "The label.",
					"items" : {
						"type" : "string"
					}
				},
				"rdfsComment" : {
					"$ref" : "#/$defs/ApiFrDatatourismeDiffuseurTranslatedText",
					"description" : "The comment."
				}
			},
			"required" : ["id", "type"]
		},
		"ApiFrDatatourismeDiffuseurOffer" : {
			"type" : "object",
			"description" : "This class represents an offer.",
			"properties" : {
				"id" : {
					"type" : "string",
					"description" : "The id of the object.",
					"format" : "uri"
				},
				"type" : {
					"type" : "array",
					"description" : "The type of object.",
					"items" : {
						"type" : "string"
					}
				},
				"schemaAcceptedPaymentMethod" : {
					"type" : "array",
					"description" : "The accepted payment methods.",
					"items" : {
						"$ref" : "#/$defs/ApiFrDatatourismeDiffuseurPaymentMethod"
					}
				},
				"schemaPriceSpecification" : {
					"type" : "array",
					"description" : "The price specifications.",
					"items" : {
						"$ref" : "#/$defs/ApiFrDatatourismeDiffuseurPriceSpecification"
					}
				}
			},
			"required" : ["id", "type"]
		},
		"ApiFrDatatourismeDiffuseurOpeningHours" : {
			"type" : "object",
			"description" : "This class represents opening hours specifications.",
			"properties" : {
				"id" : {
					"type" : "string",
					"description" : "The id of the object.",
					"format" : "uri"
				},
				"type" : {
					"type" : "array",
					"description" : "The type of object.",
					"items" : {
						"type" : "string"
					}
				},
				"schemaCloses" : {
					"type" : "string",
					"description" : "The closing hour of the place or service on the given day(s) of the week.",
					"format" : "time"
				},
				"schemaDayOfWeek" : {
					"type" : "array",
					"description" : "The day of weeks when this opening hours definition apply.",
					"items" : {
						"$ref" : "#/$defs/ApiFrDatatourismeDiffuseurDayOfWeek"
					}
				},
				"schemaOpens" : {
					"type" : "string",
					"description" : "The opening hour of the place or service on the given day(s) of the week.",
					"format" : "time"
				},
				"schemaValidFrom" : {
					"type" : "string",
					"description" : "The begin date.",
					"format" : "date"
				},
				"schemaValidThrough" : {
					"type" : "string",
					"description" : "The end date.",
					"format" : "date"
				},
				"additionalInformation" : {
					"$ref" : "#/$defs/ApiFrDatatourismeDiffuseurTranslatedText",
					"description" : "Further information."
				},
				"hasTranslatedProperty" : {
					"type" : "array",
					"description" : "The translated fields.",
					"items" : {
						"$ref" : "#/$defs/ApiFrDatatourismeDiffuseurTranslatedProperty"
					}
				}
			},
			"required" : ["id", "type"]
		},
		"ApiFrDatatourismeDiffuseurOrderedListItem" : {
			"type" : "object",
			"description" : "This class represents an item in a list.",
			"properties" : {
				"id" : {
					"type" : "string",
					"description" : "The id of the object.",
					"format" : "uri"
				},
				"type" : {
					"type" : "array",
					"description" : "The type of object.",
					"items" : {
						"type" : "string"
					}
				},
				"dcDescription" : {
					"$ref" : "#/$defs/ApiFrDatatourismeDiffuseurTranslatedText",
					"description" : "The canonical description."
				},
				"rdfsLabel" : {
					"$ref" : "#/$defs/ApiFrDatatourismeDiffuseurTranslatedText",
					"description" : "The label of this object."
				},
				"duration" : {
					"type" : "number",
					"description" : "Expected time to travel the stage in minutes."
				},
				"highDifference" : {
					"type" : "number",
					"description" : "The high difference between this step and the first step."
				},
				"isLocatedAt" : {
					"type" : "array",
					"description" : "The place where the PointOfInterest is located and therefore can be potentially consumed at.",
					"items" : {
						"$ref" : "#/$defs/ApiFrDatatourismeDiffuseurLocation"
					}
				},
				"hasMainRepresentation" : {
					"type" : "array",
					"description" : "A media that can be considered a main representation of the POI.",
					"items" : {
						"$ref" : "#/$defs/ApiFrDatatourismeDiffuseurMedia"
					}
				},
				"hasRepresentation" : {
					"type" : "array",
					"description" : "A representation is a Media that is related to the POI. e.g. : a photo of the Product, a promotional PDF document, ...",
					"items" : {
						"$ref" : "#/$defs/ApiFrDatatourismeDiffuseurMedia"
					}
				},
				"hasTranslatedProperty" : {
					"type" : "array",
					"description" : "List of translated elements.",
					"items" : {
						"$ref" : "#/$defs/ApiFrDatatourismeDiffuseurTranslatedProperty"
					}
				},
				"tourDistance" : {
					"type" : "number",
					"description" : "Distance between start and end of stage."
				}
			},
			"required" : ["id", "type"]
		},
		"ApiFrDatatourismeDiffuseurOrderedListSlot" : {
			"type" : "object",
			"description" : "This class represents a slot in a list.",
			"properties" : {
				"id" : {
					"type" : "string",
					"description" : "The id of the object.",
					"format" : "uri"
				},
				"type" : {
					"type" : "array",
					"description" : "The type of object.",
					"items" : {
						"type" : "string"
					}
				},
				"oloIndex" : {
					"type" : "integer",
					"description" : "The index of this slot."
				},
				"oloItem" : {
					"$ref" : "#/$defs/ApiFrDatatourismeDiffuseurOrderedListItem"
				}
			},
			"required" : ["id", "type"]
		},
		"ApiFrDatatourismeDiffuseurPaymentMethod" : {
			"type" : "object",
			"description" : "This class represents an payment method.",
			"properties" : {
				"id" : {
					"type" : "string",
					"description" : "The id of the object."
				},
				"type" : {
					"type" : "array",
					"description" : "The type of object.",
					"items" : {
						"type" : "string"
					}
				},
				"rdfsLabel" : {
					"$ref" : "#/$defs/ApiFrDatatourismeDiffuseurTranslatedText",
					"description" : "The label of this object."
				}
			},
			"required" : ["id", "type"]
		},
		"ApiFrDatatourismeDiffuseurPeriod" : {
			"type" : "object",
			"description" : "This class represents a period.",
			"properties" : {
				"id" : {
					"type" : "string",
					"description" : "The id of the object.",
					"format" : "uri"
				},
				"type" : {
					"type" : "array",
					"description" : "The type of object.",
					"items" : {
						"type" : "string"
					}
				},
				"appliesOnDay" : {
					"type" : "array",
					"description" : "The day of week this Period applies on.",
					"items" : {
						"$ref" : "#/$defs/ApiFrDatatourismeDiffuseurDayOfWeek"
					}
				},
				"endDate" : {
					"type" : "string",
					"description" : "End date.",
					"format" : "date"
				},
				"endTime" : {
					"type" : "string",
					"description" : "End time.",
					"format" : "time"
				},
				"hasTranslatedProperty" : {
					"type" : "array",
					"description" : "The list of all elements that were translated for this object.",
					"items" : {
						"$ref" : "#/$defs/ApiFrDatatourismeDiffuseurTranslatedProperty"
					}
				},
				"openingDetails" : {
					"$ref" : "#/$defs/ApiFrDatatourismeDiffuseurTranslatedText",
					"description" : "More information about opening period."
				},
				"startDate" : {
					"type" : "string",
					"description" : "Start date.",
					"format" : "date"
				},
				"startTime" : {
					"type" : "string",
					"description" : "Start time.",
					"format" : "time"
				}
			},
			"required" : ["id", "type"]
		},
		"ApiFrDatatourismeDiffuseurPointOfInterest" : {
			"type" : "object",
			"description" : "This represents data about a point of interest.",
			"properties" : {
				"id" : {
					"type" : "string",
					"description" : "The id of the object.",
					"format" : "uri"
				},
				"type" : {
					"type" : "array",
					"description" : "The type of object.",
					"items" : {
						"type" : "string"
					}
				},
				"dcIdentifier" : {
					"type" : "string",
					"description" : "The source identifier of the PointOfInterest."
				},
				"oloSlot" : {
					"type" : "array",
					"description" : "The slots of list.",
					"items" : {
						"$ref" : "#/$defs/ApiFrDatatourismeDiffuseurOrderedListSlot"
					}
				},
				"schemaEndDate" : {
					"type" : "array",
					"description" : "(FMA) The dates at the end of periods.",
					"items" : {
						"type" : "string",
						"format" : "date"
					}
				},
				"schemaStartDate" : {
					"type" : "array",
					"description" : "(FMA) The dates at the beginning of periods.",
					"items" : {
						"type" : "string",
						"format" : "date"
					}
				},
				"rdfsComment" : {
					"$ref" : "#/$defs/ApiFrDatatourismeDiffuseurTranslatedText",
					"description" : "The comments."
				},
				"rdfsLabel" : {
					"$ref" : "#/$defs/ApiFrDatatourismeDiffuseurTranslatedText",
					"description" : "The label."
				},
				"owlSameAs" : {
					"type" : "array",
					"description" : "The same resource pointers.",
					"items" : {
						"type" : "string",
						"format" : "uri"
					}
				},
				"covid19InOperationConfirmed" : {
					"type" : "boolean",
					"description" : "Whether the PointOfInterest is opened under covid rules."
				},
				"covid19OpeningPeriodsConfirmed" : {
					"type" : "boolean",
					"description" : "Whether the periods of the PointOfInterest are updated under covid rules."
				},
				"covid19SpecialMeasures" : {
					"type" : "string",
					"description" : "Special measures put in place."
				},
				"allowedPersons" : {
					"type" : "integer",
					"description" : "Number of persons allowed in the POI."
				},
				"availableLanguage" : {
					"type" : "array",
					"description" : "The languages.",
					"items" : {
						"type" : "string"
					}
				},
				"creationDate" : {
					"type" : "string",
					"description" : "The date of creation of the resource.",
					"format" : "date-time"
				},
				"duration" : {
					"type" : "number",
					"description" : "(TOUR) The expected time to travel the path or path-stage. Unit is minute."
				},
				"guided" : {
					"type" : "boolean",
					"description" : "Whether the visit is guided."
				},
				"hasAdministrativeContact" : {
					"type" : "array",
					"description" : "The agent to contact in case of administrative matters.",
					"items" : {
						"$ref" : "#/$defs/ApiFrDatatourismeDiffuseurAgent"
					}
				},
				"hasAudience" : {
					"type" : "array",
					"description" : "The audiences this poi is diriged to.",
					"items" : {
						"$ref" : "#/$defs/ApiFrDatatourismeDiffuseurAudience"
					}
				},
				"hasArchitecturalStyle" : {
					"type" : "array",
					"description" : "The architectural style.",
					"items" : {
						"$ref" : "#/$defs/ApiFrDatatourismeDiffuseurTheme"
					}
				},
				"hasBeenCreatedBy" : {
					"$ref" : "#/$defs/ApiFrDatatourismeDiffuseurAgent",
					"description" : "The agent that created this PointOfInterest."
				},
				"hasBeenPublishedBy" : {
					"type" : "array",
					"description" : "The people that published this PointOfInterest.",
					"items" : {
						"$ref" : "#/$defs/ApiFrDatatourismeDiffuseurAgent"
					}
				},
				"hasBookingContact" : {
					"type" : "array",
					"description" : "The agent to contact in case of booking matters.",
					"items" : {
						"$ref" : "#/$defs/ApiFrDatatourismeDiffuseurAgent"
					}
				},
				"hasCommunicationContact" : {
					"type" : "array",
					"description" : "The agent to contact in case of communication matters.",
					"items" : {
						"$ref" : "#/$defs/ApiFrDatatourismeDiffuseurAgent"
					}
				},
				"hasClientTarget" : {
					"type" : "array",
					"description" : "The targets.",
					"items" : {
						"$ref" : "#/$defs/ApiFrDatatourismeDiffuseurAudience"
					}
				},
				"hasContact" : {
					"type" : "array",
					"description" : "The contacts.",
					"items" : {
						"$ref" : "#/$defs/ApiFrDatatourismeDiffuseurAgent"
					}
				},
				"hasDescription" : {
					"type" : "array",
					"description" : "The descriptions.",
					"items" : {
						"$ref" : "#/$defs/ApiFrDatatourismeDiffuseurDescription"
					}
				},
				"hasFeature" : {
					"type" : "array",
					"description" : "The features information (amenities, services infos) this POI provides.",
					"items" : {
						"$ref" : "#/$defs/ApiFrDatatourismeDiffuseurFeatureSpecification"
					}
				},
				"hasFloorSize" : {
					"$ref" : "#/$defs/ApiFrDatatourismeDiffuseurQuantitativeValue",
					"description" : "Has floor size."
				},
				"hasGeographicReach" : {
					"type" : "array",
					"description" : "The geographical reach of this POI: international... local.",
					"items" : {
						"$ref" : "#/$defs/ApiFrDatatourismeDiffuseurGeographicReach"
					}
				},
				"hasMainRepresentation" : {
					"type" : "array",
					"description" : "The main representation.",
					"items" : {
						"$ref" : "#/$defs/ApiFrDatatourismeDiffuseurMedia"
					}
				},
				"hasManagementContact" : {
					"type" : "array",
					"description" : "The agent to contact in case of management / director matters.",
					"items" : {
						"$ref" : "#/$defs/ApiFrDatatourismeDiffuseurAgent"
					}
				},
				"hasNeighborhood" : {
					"type" : "array",
					"description" : "The themes.",
					"items" : {
						"$ref" : "#/$defs/ApiFrDatatourismeDiffuseurTheme"
					}
				},
				"hasRepresentation" : {
					"type" : "array",
					"description" : "The representation.",
					"items" : {
						"$ref" : "#/$defs/ApiFrDatatourismeDiffuseurMedia"
					}
				},
				"hasReview" : {
					"type" : "array",
					"description" : "A Review which rates this POI.",
					"items" : {
						"$ref" : "#/$defs/ApiFrDatatourismeDiffuseurReview"
					}
				},
				"hasTheme" : {
					"type" : "array",
					"description" : "The theme.",
					"items" : {
						"$ref" : "#/$defs/ApiFrDatatourismeDiffuseurTheme"
					}
				},
				"hasTourType" : {
					"type" : "array",
					"description" : "(TOUR) The route type : round trip, loop or open jaw itinerary.",
					"items" : {
						"$ref" : "#/$defs/ApiFrDatatourismeDiffuseurTourType"
					}
				},
				"hasTranslatedProperty" : {
					"type" : "array",
					"description" : "The translated properties.",
					"items" : {
						"$ref" : "#/$defs/ApiFrDatatourismeDiffuseurTranslatedProperty"
					}
				},
				"highDifference" : {
					"type" : "number",
					"description" : "The high difference of the path (difference between the lowest and the higest altitude). Unit is meters."
				},
				"isLocatedAt" : {
					"type" : "array",
					"description" : "The locations.",
					"items" : {
						"$ref" : "#/$defs/ApiFrDatatourismeDiffuseurLocation"
					}
				},
				"isOwnedBy" : {
					"type" : "array",
					"description" : "The owner.",
					"items" : {
						"$ref" : "#/$defs/ApiFrDatatourismeDiffuseurAgent"
					}
				},
				"lastUpdate" : {
					"type" : "string",
					"description" : "Last update in provider.",
					"format" : "date-time"
				},
				"lastUpdateDatatourisme" : {
					"type" : "string",
					"description" : "Last update in datatourisme.",
					"format" : "date-time"
				},
				"maxAltitude" : {
					"type" : "number",
					"description" : "(TOUR) The altitude of the highest point in the path. Unit is meter."
				},
				"minAltitude" : {
					"type" : "number",
					"description" : "(TOUR) The altitude of the lowest point in the path. Unit is meter."
				},
				"offers" : {
					"type" : "array",
					"description" : "The payment services provided by this Product (cost per day, per person, price...).",
					"items" : {
						"$ref" : "#/$defs/ApiFrDatatourismeDiffuseurOffer"
					}
				},
				"providesCuisineOfType" : {
					"type" : "array",
					"description" : "The type of food provided.",
					"items" : {
						"$ref" : "#/$defs/ApiFrDatatourismeDiffuseurTheme"
					}
				},
				"providesFoodProduct" : {
					"type" : "array",
					"description" : "The type of provided food.",
					"items" : {
						"$ref" : "#/$defs/ApiFrDatatourismeDiffuseurTheme"
					}
				},
				"reducedMobilityAccess" : {
					"type" : "boolean",
					"description" : "Gets whether the PointOfInterest is suitable for people with reduced mobility."
				},
				"saleOnSite" : {
					"type" : "boolean",
					"description" : "True when the Tasting provides saling on site."
				},
				"takeAway" : {
					"type" : "boolean",
					"description" : "True if food takeaway is allowed."
				},
				"takesPlaceAt" : {
					"type" : "array",
					"description" : "(FMA) The period this event takes place at.",
					"items" : {
						"$ref" : "#/$defs/ApiFrDatatourismeDiffuseurPeriod"
					}
				},
				"tourDistance" : {
					"type" : "number",
					"description" : "(TOUR) The distance between the start and the end of the stage or the path. Unit in meters."
				}
			},
			"required" : ["id", "type", "lastUpdateDatatourisme"]
		},
		"ApiFrDatatourismeDiffuseurPointOfInterestResume" : {
			"type" : "object",
			"description" : "This interface represents minimalistic data about a point of interest to check if the data should be updated locally.",
			"properties" : {
				"id" : {
					"type" : "string",
					"description" : "The id of the object.",
					"format" : "uri"
				},
				"label" : {
					"type" : "string",
					"description" : "The label of the object."
				},
				"lastUpdateDatatourisme" : {
					"type" : "string",
					"description" : "The date of last udpate of the object in datatourisme.",
					"format" : "date-time"
				},
				"file" : {
					"type" : "string",
					"description" : "The full relative path."
				}
			},
			"required" : ["lastUpdateDatatourisme", "file"]
		},
		"ApiFrDatatourismeDiffuseurPriceSpecification" : {
			"type" : "object",
			"description" : "This class represents a specification of a price.",
			"properties" : {
				"id" : {
					"type" : "string",
					"description" : "The id of the object.",
					"format" : "uri"
				},
				"type" : {
					"type" : "array",
					"description" : "The type of object.",
					"items" : {
						"type" : "string"
					}
				},
				"schemaEligibleQuantity" : {
					"type" : "string",
					"description" : "Eligible quantity."
				},
				"schemaMaxPrice" : {
					"type" : "array",
					"description" : "The max price.",
					"items" : {
						"type" : "number"
					}
				},
				"schemaMinPrice" : {
					"type" : "array",
					"description" : "The min price.",
					"items" : {
						"type" : "number"
					}
				},
				"schemaPrice" : {
					"type" : "number",
					"description" : "The price."
				},
				"schemaPriceCurrency" : {
					"type" : "string",
					"description" : "The price currency."
				},
				"additionalInformation" : {
					"$ref" : "#/$defs/ApiFrDatatourismeDiffuseurTranslatedText",
					"description" : "Further information."
				},
				"hasAudience" : {
					"type" : "array",
					"description" : "The audience targeted by this object.",
					"items" : {
						"$ref" : "#/$defs/ApiFrDatatourismeDiffuseurAudience"
					}
				},
				"hasEligibleAudience" : {
					"type" : "array",
					"description" : "The people audience this pricing applies on.",
					"items" : {
						"$ref" : "#/$defs/ApiFrDatatourismeDiffuseurAudience"
					}
				},
				"hasEligiblePolicy" : {
					"$ref" : "#/$defs/ApiFrDatatourismeDiffuseurPricingPolicy",
					"description" : "The pricing policy the pricing applies on. Ex: Base rate."
				},
				"hasPricingMode" : {
					"type" : "array",
					"description" : "The pricing mode this pricing applies on : per day, per person...",
					"items" : {
						"$ref" : "#/$defs/ApiFrDatatourismeDiffuseurPricingMode"
					}
				},
				"hasPricingOffer" : {
					"type" : "array",
					"description" : "Detailled offer on which the price applies. e.g. Menu, Bungalow ...",
					"items" : {
						"$ref" : "#/$defs/ApiFrDatatourismeDiffuseurPricingOffer"
					}
				},
				"hasPricingSeason" : {
					"type" : "array",
					"description" : "Season on which applies the price specification.",
					"items" : {
						"$ref" : "#/$defs/ApiFrDatatourismeDiffuseurPricingSeason"
					}
				},
				"hasTranslatedProperty" : {
					"type" : "array",
					"description" : "The translated properties.",
					"items" : {
						"$ref" : "#/$defs/ApiFrDatatourismeDiffuseurTranslatedProperty"
					}
				},
				"appliesOnPeriod" : {
					"type" : "array",
					"description" : "The period this pricing applies on.",
					"items" : {
						"$ref" : "#/$defs/ApiFrDatatourismeDiffuseurPeriod"
					}
				},
				"name" : {
					"$ref" : "#/$defs/ApiFrDatatourismeDiffuseurTranslatedText",
					"description" : "The name of the specification."
				}
			},
			"required" : ["id", "type"]
		},
		"ApiFrDatatourismeDiffuseurPricingMode" : {
			"type" : "object",
			"description" : "This class represents a pricing mode.",
			"properties" : {
				"id" : {
					"type" : "string",
					"description" : "The id of the object."
				},
				"type" : {
					"type" : "array",
					"description" : "The type of object.",
					"items" : {
						"type" : "string"
					}
				},
				"rdfsLabel" : {
					"$ref" : "#/$defs/ApiFrDatatourismeDiffuseurTranslatedText",
					"description" : "The label."
				}
			},
			"required" : ["id", "type"]
		},
		"ApiFrDatatourismeDiffuseurPricingOffer" : {
			"type" : "object",
			"description" : "This class represents a pricing mode.",
			"properties" : {
				"id" : {
					"type" : "string",
					"description" : "The id of the object."
				},
				"type" : {
					"type" : "array",
					"description" : "The type of object.",
					"items" : {
						"type" : "string"
					}
				},
				"rdfsLabel" : {
					"$ref" : "#/$defs/ApiFrDatatourismeDiffuseurTranslatedText",
					"description" : "The label."
				}
			},
			"required" : ["id", "type"]
		},
		"ApiFrDatatourismeDiffuseurPricingPolicy" : {
			"type" : "object",
			"description" : "This file represents a pricing policy.",
			"properties" : {
				"id" : {
					"type" : "string",
					"description" : "The id of the object."
				},
				"type" : {
					"type" : "array",
					"description" : "The type of object.",
					"items" : {
						"type" : "string"
					}
				},
				"rdfsLabel" : {
					"$ref" : "#/$defs/ApiFrDatatourismeDiffuseurTranslatedText",
					"description" : "The label."
				}
			},
			"required" : ["id", "type"]
		},
		"ApiFrDatatourismeDiffuseurPricingSeason" : {
			"type" : "object",
			"description" : "This class represents a pricing mode.",
			"properties" : {
				"id" : {
					"type" : "string",
					"description" : "The id of the object."
				},
				"type" : {
					"type" : "array",
					"description" : "The type of object.",
					"items" : {
						"type" : "string"
					}
				},
				"rdfsLabel" : {
					"$ref" : "#/$defs/ApiFrDatatourismeDiffuseurTranslatedText",
					"description" : "The label."
				}
			},
			"required" : ["id", "type"]
		},
		"ApiFrDatatourismeDiffuseurQuantitativeValue" : {
			"type" : "object",
			"description" : "This class represents a quantifiable value.",
			"properties" : {
				"id" : {
					"type" : "string",
					"description" : "The id of the object.",
					"format" : "uri"
				},
				"type" : {
					"type" : "array",
					"description" : "The type of object.",
					"items" : {
						"type" : "string"
					}
				},
				"schemaMaxValue" : {
					"type" : "array",
					"description" : "Gets the max quantified value.",
					"items" : {
						"type" : "string"
					}
				},
				"schemaUnitText" : {
					"type" : "array",
					"description" : "The unit.",
					"items" : {
						"type" : "string"
					}
				},
				"schemaValue" : {
					"type" : "string",
					"description" : "The value."
				}
			},
			"required" : ["id", "type"]
		},
		"ApiFrDatatourismeDiffuseurRegion" : {
			"type" : "object",
			"description" : "This interface represents a region.",
			"properties" : {
				"id" : {
					"type" : "string",
					"description" : "The id of the object."
				},
				"type" : {
					"type" : "array",
					"description" : "The type of object.",
					"items" : {
						"type" : "string"
					}
				},
				"rdfsLabel" : {
					"$ref" : "#/$defs/ApiFrDatatourismeDiffuseurTranslatedText",
					"description" : "The label."
				},
				"insee" : {
					"type" : "string",
					"description" : "The insee code of the department."
				},
				"isPartOfCountry" : {
					"$ref" : "#/$defs/ApiFrDatatourismeDiffuseurCountry",
					"description" : "The country this region is in."
				}
			},
			"required" : ["id", "type"]
		},
		"ApiFrDatatourismeDiffuseurResource" : {
			"type" : "object",
			"description" : "This class represents an resource for a media.",
			"properties" : {
				"id" : {
					"type" : "string",
					"description" : "The id of the object.",
					"format" : "uri"
				},
				"type" : {
					"type" : "array",
					"description" : "The type of object.",
					"items" : {
						"type" : "string"
					}
				},
				"ebucoreFileSize" : {
					"type" : "array",
					"description" : "The size of the resource.",
					"items" : {
						"type" : "number"
					}
				},
				"ebucoreHasMimeType" : {
					"type" : "array",
					"description" : "The mime type.",
					"items" : {
						"$ref" : "#/$defs/ApiFrDatatourismeDiffuseurMimeType"
					}
				},
				"ebucoreHeight" : {
					"type" : "number",
					"description" : "The height."
				},
				"ebucoreHeightUnit" : {
					"type" : "string",
					"description" : "The unit of the height."
				},
				"ebucoreLocator" : {
					"type" : "array",
					"description" : "The locations.",
					"items" : {
						"type" : "string",
						"format" : "uri"
					}
				},
				"ebucoreWidth" : {
					"type" : "number",
					"description" : "The width."
				},
				"ebucoreWidthUnit" : {
					"type" : "string",
					"description" : "The width unit."
				}
			},
			"required" : ["id", "type"]
		},
		"ApiFrDatatourismeDiffuseurReview" : {
			"type" : "object",
			"description" : "This class represents a review.",
			"properties" : {
				"id" : {
					"type" : "string",
					"description" : "The id of the object.",
					"format" : "uri"
				},
				"type" : {
					"type" : "array",
					"description" : "The type of object.",
					"items" : {
						"type" : "string"
					}
				},
				"schemaDatePublished" : {
					"type" : "array",
					"description" : "The date published.",
					"items" : {
						"type" : "string",
						"format" : "date-time"
					}
				},
				"hasReviewValue" : {
					"$ref" : "#/$defs/ApiFrDatatourismeDiffuseurReviewValue",
					"description" : "The review values."
				},
				"pending" : {
					"type" : "boolean",
					"description" : "True if the review is pending."
				},
				"reviewDeliveryDate" : {
					"type" : "string",
					"description" : "The date on which the review has been delivered.",
					"format" : "date-time"
				},
				"reviewExpirationDate" : {
					"type" : "string",
					"description" : "The date on which the review will expire.",
					"format" : "date-time"
				}
			},
			"required" : ["id", "type"]
		},
		"ApiFrDatatourismeDiffuseurReviewValue" : {
			"type" : "object",
			"description" : "This class represents a review value.",
			"properties" : {
				"id" : {
					"type" : "string",
					"description" : "The id of the object."
				},
				"type" : {
					"type" : "array",
					"description" : "The type of object.",
					"items" : {
						"type" : "string"
					}
				},
				"schemaRatingValue" : {
					"type" : "string",
					"description" : "The value of the review."
				},
				"rdfsLabel" : {
					"$ref" : "#/$defs/ApiFrDatatourismeDiffuseurTranslatedText",
					"description" : "The label of this object."
				},
				"isCompliantWith" : {
					"type" : "array",
					"description" : "The classes to which this review apply.",
					"items" : {
						"type" : "string"
					}
				}
			},
			"required" : ["id", "type"]
		},
		"ApiFrDatatourismeDiffuseurTheme" : {
			"type" : "object",
			"description" : "This class represents a theme.",
			"properties" : {
				"id" : {
					"type" : "string",
					"description" : "The id of the object."
				},
				"type" : {
					"type" : "array",
					"description" : "The type of object.",
					"items" : {
						"type" : "string"
					}
				},
				"rdfsLabel" : {
					"$ref" : "#/$defs/ApiFrDatatourismeDiffuseurTranslatedText",
					"description" : "The label of this object."
				}
			},
			"required" : ["id", "type"]
		},
		"ApiFrDatatourismeDiffuseurTourType" : {
			"type" : "object",
			"description" : "This class represents a pricing mode.",
			"properties" : {
				"id" : {
					"type" : "string",
					"description" : "The id of the object."
				},
				"type" : {
					"type" : "array",
					"description" : "The type of object.",
					"items" : {
						"type" : "string"
					}
				},
				"rdfsLabel" : {
					"$ref" : "#/$defs/ApiFrDatatourismeDiffuseurTranslatedText",
					"description" : "The label of this object."
				}
			},
			"required" : ["id", "type"]
		},
		"ApiFrDatatourismeDiffuseurTranslatedProperty" : {
			"type" : "object",
			"description" : "This class represents a translated property metadata.",
			"properties" : {
				"id" : {
					"type" : "string",
					"description" : "The id of the object."
				},
				"dcContributor" : {
					"type" : "array",
					"description" : "The contributors.",
					"items" : {
						"type" : "string"
					}
				},
				"rdfLanguage" : {
					"type" : "array",
					"description" : "The languages.",
					"items" : {
						"type" : "string"
					}
				},
				"rdfPredicate" : {
					"type" : "array",
					"description" : "The properties.",
					"items" : {
						"type" : "string"
					}
				}
			},
			"required" : ["id"]
		},
		"ApiFrDatatourismeDiffuseurTranslatedText" : {
			"type" : "object",
			"description" : "This class represents a specific text with its translations.",
			"properties" : {
				"de" : {
					"type" : "string",
					"description" : "The german translation."
				},
				"en" : {
					"type" : "string",
					"description" : "The english translation."
				},
				"es" : {
					"type" : "string",
					"description" : "The spanish translation."
				},
				"fr" : {
					"type" : "string",
					"description" : "The french translation."
				},
				"it" : {
					"type" : "string",
					"description" : "The italian translation."
				},
				"nl" : {
					"type" : "string",
					"description" : "The dutch translation."
				},
				"pt" : {
					"type" : "string",
					"description" : "The portuguese translation."
				},
				"ru" : {
					"type" : "string",
					"description" : "The russian translation."
				},
				"zh" : {
					"type" : "string",
					"description" : "The chinese translation."
				}
			}
		}
	}
}